{
    "app-id" : "org.gnome.gedit",
    "runtime" : "org.gnome.Platform",
    "runtime-version" : "master",
    "sdk" : "org.gnome.Sdk",
    "command" : "gedit",
    "tags" : [
        "nightly"
    ],
    "desktop-file-name-prefix" : "(Nightly) ",
    "finish-args" : [
        "--share=ipc",
        "--socket=x11",
        "--socket=wayland",
        "--filesystem=host",
        "--filesystem=xdg-run/dconf",
        "--filesystem=~/.config/dconf:ro",
        "--talk-name=ca.desrt.dconf",
        "--env=DCONF_USER_CONFIG_DIR=.config/dconf"
    ],
    "build-options" : {
        "cflags" : "-O2 -g",
        "cxxflags" : "-O2 -g",
        "env" : {
            "V" : "1"
        }
    },
    "cleanup" : [
        "/include",
        "/lib/pkgconfig",
        "/share/pkgconfig",
        "/share/aclocal",
        "/man",
        "/share/man",
        "/share/gtk-doc",
        "/share/vala",
        "*.la",
        "*.a"
    ],
    "modules" : [
        {
            "name" : "libpeas",
            "buildsystem" : "meson",
            "cleanup" : [
                "/bin/*"
            ],
            "config-opts" : [
                "-Ddemos=false",
                "-Dvapi=true",
                "-Dgtk_doc=false"
            ],
            "sources" : [
                {
                    "type" : "archive",
                    "url" : "https://download.gnome.org/sources/libpeas/1.23/libpeas-1.23.90.1.tar.xz",
                    "sha256" : "210d2a44a25934f4f4d359cf54faaff03c2cf6c7fd358ae9da89fba2bca0a2f3"
                }
            ]
        },
        {
            "name" : "gtksourceview",
            "buildsystem" : "meson",
            "config-opts" : [
                "-Dvapi=true",
                "-Dgtk_doc=false"
            ],
            "sources" : [
                {
                    "type" : "archive",
                    "url" : "https://download.gnome.org/sources/gtksourceview/4.3/gtksourceview-4.3.1.tar.xz",
                    "sha256" : "b8ef118786f4e5c1ee20b986ac3914c60064a11acdee73645be3adb3543a2a5d"
                }
            ]
        },
        {
            "name" : "gspell",
            "config-opts" : [
                "--disable-gtk-doc"
            ],
            "sources" : [
                {
                    "type" : "archive",
                    "url" : "https://download.gnome.org/sources/gspell/1.8/gspell-1.8.1.tar.xz",
                    "sha256" : "819a1d23c7603000e73f5e738bdd284342e0cd345fb0c7650999c31ec741bbe5"
                }
            ]
        },
        {
            "name" : "gedit",
            "buildsystem" : "meson",
            "config-opts" : [
                "-Dvapi=true",
                "-Dgtk_doc=false"
            ],
            "sources" : [
                {
                    "type" : "git",
                    "url" : "https://gitlab.gnome.org/GNOME/gedit.git"
                }
            ]
        },
        {
            "name" : "gedit-plugins",
            "buildsystem" : "meson",
            "sources" : [
                {
                    "type" : "git",
                    "url" : "https://gitlab.gnome.org/GNOME/gedit-plugins.git"
                }
            ]
        }
    ]
}
